{
	"order" : 4,
	"numerator" : {
		"b0" : 0.005268
	},
	"denominator" : {
		"a1" : 1,
		"a2" : 0.413353,
		"a3" : 0.132606,
		"a4" : 0.061426,
		"a5" : 0.217934
	},
	"design_algorithm" : 1,
	"is_ARMA" : false
}