0.000000000000000000e+00
9.176150619697393332e-03
2.286535874343821606e-02
4.328725751358627333e-02
7.375315047162304960e-02
1.192029220221175606e-01
1.870060137232988362e-01
2.881563404995569067e-01
4.390548961588639498e-01
6.641690883298138059e-01
