0.000000000000000000e+00
2.447174185242317890e-02
9.549150281252638539e-02
2.061073738537633204e-01
3.454915028125262744e-01
4.999999999999998890e-01
6.545084971874737256e-01
7.938926261462365686e-01
9.045084971874737256e-01
9.755282581475768211e-01
